assets/untitled.vcd
$timescale 1 ns $end
$scope module top $end
$var wire 1 ! Channel_1 $end
$upscope $end
$enddefinitions $end
#0
0!
#871206460
1!
#871469960
0!
#871753020
1!
#871985750
0!
#873294360
1!
#873541860
0!
#873809530
1!
#874057530
0!
#875363180
1!
#875613830
0!
#875873010
1!
#876129510
0!
#877430000
1!
#877684660
0!
#877943870
1!
#878203720
0!
#879492060
1!
#879759060
0!
#880009160
1!
#880273390
0!
#881559920
1!
#881823420
0!
#882078830
1!
#882338100
0!
#883634400
1!
#883894860
0!
#884151960
1!
#884407920
0!
#885698490
1!
#885958840
0!
#886217940
1!
#886471670
0!
#887763850
1!
#888031120
0!
#888281420
1!
#888546340
0!
#889833870
1!
#890097330
0!
#890352200
1!
#890611970
0!
#891909160
1!
#892168620
0!
#892424990
1!
#892680060
0!
#893971980
1!
#894231980
0!
#894491770
1!
#894751580
0!
#896044070
1!
#896300340
0!
#896560100
1!
#896823900
0!
#898112090
1!
#898372160
0!
#898631530
1!
#898887800
0!
#910425730
1!
#910688610
0!
#913288180
1!
#913534560
0!
#914835790
1!
#915092440
0!
#915348770
1!
#915609040
0!
#916894800
1!
#917155150
0!
#917416640
1!
#917680750
0!
#917936240
1!
#918194120
0!
#919489460
1!
#919738380
0!
#919997020
1!
#920259290
0!
#921550780
1!
#921814740
0!
#922069690
1!
#922326070
0!
#923616570
1!
#923873570
0!
#924139440
1!
#924396700
0!
#925690820
1!
#925939700
0!
#926198920
1!
#926458490
0!
#927749830
1!
#928016790
0!
#929300090
1!
#929559940
0!
#929819160
1!
#930078350
0!
#931374650
1!
#931632450
0!
#931884290
1!
#932150170
0!
#932405580
1!
#932662650
0!
#933951260
1!
#934218300
0!
#935504600
1!
#935771490
0!
#936020970
1!
#936287740
0!
#937576160
1!
#937831420
0!
#938089950
1!
#938354530
0!
#939641250
1!
#939904560
0!
#940158850
1!
#940417230
0!
#941701960
1!
#941961960
0!
#942224520
1!
#942482440
0!
#943769090
1!
#944028860
0!
#944297380
1!
#944554690
0!
#944811640
1!
#945068400
0!
#946357400
1!
#946621510
0!
#947911580
1!
#948166240
0!
#948426030
1!
#948687990
0!
#948941280
1!
#949195820
0!
#950493970
1!
#950757930
0!
#951003920
1!
#951268410
0!
#952558060
1!
#952821710
0!
#953077820
1!
#953333620
0!
#954624310
1!
#954885190
0!
#956178300
1!
#956434570
0!
#956694830
1!
#956959480
0!
#958247400
1!
#958511360
0!
#958766300
1!
#959025030
0!
#959277060
1!
#959542210
0!
#960830630
1!
#961088090
0!
#961344070
1!
#961611690
0!
#962895490
1!
#963157260
0!
#963415670
1!
#963682010
0!
#964971890
1!
#965232160
0!
#965488220
1!
#965747950
0!
#967030600
1!
#967296560
0!
#967554620
1!
#967817200
0!
#969103840
1!
#969362610
0!
#970649800
1!
#970918070
0!
#971175090
1!
#971433740
0!
#972726080
1!
#972982310
0!
#973237720
1!
#973498340
0!
#973751250
1!
#974017320
0!
#975306510
1!
#975566160
0!
#975825340
1!
#976080990
0!
#977379260
1!
#977639290
0!
#977888280
1!
#978148160
0!
#979446350
1!
#979702120
0!
#989951310
1!
#990217810
0!
#992802690
1!
#993062220
0!
#994356990
1!
#994617290
0!
#994873630
1!
#995129470
0!
#996419970
1!
#996679920
0!
#996938950
1!
#997197600
0!
#997456820
1!
#997719930
0!
#999013120
1!
#999265770
0!
#999529870
1!
#999785410
0!
#1001084940
1!
#1001341790
0!
#1001597270
1!
#1001855890
0!
#1003151610
1!
#1003401490
0!
#1003669900
1!
#1003925900
0!
#1005214740
1!
#1005478470
0!
#1005735150
1!
#1005990380
0!
#1007280530
1!
#1007540490
0!
#1008832100
1!
#1009098600
0!
#1009359820
1!
#1009614890
0!
#1010903540
1!
#1011162920
0!
#1011419140
1!
#1011675680
0!
#1011935890
1!
#1012200390
0!
#1013487040
1!
#1013750190
0!
#1015039260
1!
#1015299340
0!
#1015557860
1!
#1015817010
0!
#1017106660
1!
#1017372510
0!
#1017629570
1!
#1017881680
0!
#1019179060
1!
#1019438250
0!
#1019694200
1!
#1019950050
0!
#1021242430
1!
#1021504890
0!
#1021769180
1!
#1022026180
0!
#1023308940
1!
#1023571900
0!
#1023827890
1!
#1024084850
0!
#1024345220
1!
#1024609790
0!
#1025898140
1!
#1026155940
0!
#1027444740
1!
#1027703970
0!
#1027972040
1!
#1028228690
0!
#1028484870
1!
#1028743630
0!
#1030033970
1!
#1030299820
0!
#1030556650
1!
#1030808040
0!
#1032106530
1!
#1032365910
0!
#1032622480
1!
#1032878860
0!
#1034170280
1!
#1034430470
0!
#1035716310
1!
#1035983040
0!
#1036244790
1!
#1036500480
0!
#1037789250
1!
#1038048740
0!
#1038307460
1!
#1038563650
0!
#1038820180
1!
#1039081290
0!
#1040378130
1!
#1040637820
0!
#1040894850
1!
#1041150270
0!
#1042442190
1!
#1042702420
0!
#1042961060
1!
#1043220290
0!
#1044513010
1!
#1044769240
0!
#1045028150
1!
#1045291340
0!
#1046579800
1!
#1046839520
0!
#1047098630
1!
#1047353010
0!
#1048640850
1!
#1048903850
0!
#1050199650
1!
#1050455260
0!
#1050712140
1!
#1050969600
0!
#1052257440
1!
#1052521320
0!
#1052777460
1!
#1053038960
0!
#1053302480
1!
#1053558170
0!
#1054847670
1!
#1055105470
0!
#1055361040
1!
#1055628270
0!
#1056912450
1!
#1057175760
0!
#1057431860
1!
#1057688010
0!
#1058981240
1!
#1059241970
0!
#1069487780
1!
#1069749470
0!
#1072342920
1!
#1072599070
0!
#1073887260
1!
#1074151030
0!
#1074406900
1!
#1074666820
0!
#1075951890
1!
#1076222510
0!
#1076472880
1!
#1076737260
0!
#1076992670
1!
#1077251360
0!
#1078545820
1!
#1078798740
0!
#1079064920
1!
#1079322070
0!
#1080606060
1!
#1080865640
0!
#1081125240
1!
#1081384820
0!
#1082677770
1!
#1082934230
0!
#1083193490
1!
#1083456640
0!
#1084745100
1!
#1085003860
0!
#1085259930
1!
#1085515770
0!
#1086808340
1!
#1087071610
0!
#1088360840
1!
#1088618910
0!
#1088875510
1!
#1089133930
0!
#1090424620
1!
#1090692310
0!
#1090947720
1!
#1091207490
0!
#1091469320
1!
#1091724170
0!
#1093012120
1!
#1093276540
0!
#1094564270
1!
#1094824000
0!
#1095079830
1!
#1095338940
0!
#1096627020
1!
#1096891360
0!
#1097148920
1!
#1097402270
0!
#1098700610
1!
#1098960070
0!
#1099220250
1!
#1099476550
0!
#1100763890
1!
#1101023430
0!
#1101282300
1!
#1101541990
0!
#1102834060
1!
#1103089950
0!
#1103356470
1!
#1103607550
0!
#1103870730
1!
#1104125800
0!
#1105413410
1!
#1105672490
0!
#1106968480
1!
#1107226250
0!
#1107483120
1!
#1107740390
0!
#1107997760
1!
#1108265450
0!
#1109554330
1!
#1109809980
0!
#1110066120
1!
#1110326160
0!
#1111621650
1!
#1111880380
0!
#1112134710
1!
#1112390290
0!
#1113689280
1!
#1113949320
0!
#1115241310
1!
#1115496740
0!
#1115755760
1!
#1116009300
0!
#1117305680
1!
#1117569020
0!
#1117823740
1!
#1118082770
0!
#1118335030
1!
#1118600450
0!
#1119889600
1!
#1120147520
0!
#1120403620
1!
#1120670390
0!
#1121954080
1!
#1122213920
0!
#1122472330
1!
#1122735100
0!
#1124026710
1!
#1124280980
0!
#1124545270
1!
#1124801350
0!
#1126091650
1!
#1126349030
0!
#1126604710
1!
#1126871750
0!
#1128155630
1!
#1128416320
0!
#1129708270
1!
#1129964310
0!
#1130224720
1!
#1130489260
0!
#1131777560
1!
#1132036250
0!
#1132291930
1!
#1132558920
0!
#1132809100
1!
#1133073950
0!
#1134362670
1!
#1134622400
0!
#1134882580
1!
#1135138850
0!
#1136426690
1!
#1136689380
0!
#1136943100
1!
#1137208170
0!
#1138497210
1!
#1138759440
0!
#1149007670
1!
#1149264010
0!
#1151862620
1!
#1152108810
0!
#1153402420
1!
#1153662000
0!
#1153921210
1!
#1154181020
0!
#1155475520
1!
#1155734130
0!
#1155997000
1!
#1156252960
0!
#1156508680
1!
#1156765210
0!
#1158056210
1!
#1158323440
0!
#1158579080
1!
#1158837840
0!
#1160133450
1!
#1160382140
0!
#1160644320
1!
#1160902860
0!
#1162200390
1!
#1162459660
0!
#1162717800
1!
#1162974880
0!
#1164265560
1!
#1164520600
0!
#1164787160
1!
#1165037660
0!
#1166334120
1!
#1166587690
0!
#1167884800
1!
#1168143960
0!
#1168400440
1!
#1168659400
0!
#1169951280
1!
#1170207240
0!
#1170473920
1!
#1170725460
0!
#1170989330
1!
#1171244560
0!
#1172533210
1!
#1172790510
0!
#1174079350
1!
#1174349350
0!
#1174606030
1!
#1174864530
0!
#1176151870
1!
#1176416710
0!
#1176674430
1!
#1176926930
0!
#1178223810
1!
#1178482270
0!
#1178746370
1!
#1179001100
0!
#1180292170
1!
#1180551670
0!
#1180804000
1!
#1181067920
0!
#1182355650
1!
#1182615610
0!
#1182873440
1!
#1183132210
0!
#1183398270
1!
#1183646960
0!
#1184945960
1!
#1185202680
0!
#1186493910
1!
#1186757480
0!
#1187014320
1!
#1187269850
0!
#1187528380
1!
#1187791420
0!
#1189077180
1!
#1189341100
0!
#1189596630
1!
#1189855160
0!
#1191150120
1!
#1191403120
0!
#1191669220
1!
#1191926020
0!
#1193220440
1!
#1193469360
0!
#1194769320
1!
#1195026890
0!
#1195288690
1!
#1195543760
0!
#1196832300
1!
#1197090410
0!
#1197356550
1!
#1197614090
0!
#1197864650
1!
#1198129110
0!
#1199425990
1!
#1199682570
0!
#1199937820
1!
#1200196200
0!
#1201491160
1!
#1201750660
0!
#1202007150
1!
#1202262070
0!
#1203552250
1!
#1203815750
0!
#1204072280
1!
#1204328850
0!
#1205622120
1!
#1205886000
0!
#1206142680
1!
#1206398410
0!
#1207689090
1!
#1207953320
0!
#1209242550
1!
#1209500080
0!
#1209766450
1!
#1210013880
0!
#1211312180
1!
#1211565910
0!
#1211833390
1!
#1212084740
0!
#1212348490
1!
#1212604030
0!
#1213891720
1!
#1214158790
0!
#1214414050
1!
#1214672430
0!
#1215969120
1!
#1216218810
0!
#1216476870
1!
#1216742870
0!
#1218033330
1!
#1218286710
0!
#2014898650
1!
#2015154880
0!
#2015451550
1!
#2015669440
0!
#2016996120
1!
#2017234700
0!
#2017500990
1!
#2017747220
0!
#2019050060
1!
#2019307750
0!
#2019565820
1!
#2019823550
0!
#2021114660
1!
#2021381620
0!
#2021632030
1!
#2021897180
0!
#2023184900
1!
#2023448900
0!
#2023704540
1!
#2023963080
0!
#2025259110
1!
#2025519230
0!
#2025767980
1!
#2026029710
0!
#2027319550
1!
#2027584660
0!
#2027840190
1!
#2028097000
0!
#2029387530
1!
#2029655100
0!
#2029910550
1!
#2030168430
0!
#2031464120
1!
#2031724960
0!
#2031975450
1!
#2032233300
0!
#2033532330
1!
#2033789170
0!
#2034045620
1!
#2034304970
0!
#2035592650
1!
#2035857150
0!
#2036115720
1!
#2036379480
0!
#2037668400
1!
#2037927980
0!
#2038184230
1!
#2038440270
0!
#2039732340
1!
#2039994760
0!
#2040248670
1!
#2040515780
0!
#2041799090
1!
#2042059620
0!
#2042322380
1!
#2042582030
0!
#2054118840
1!
#2054129190
0!
#2054129220
1!
#2054383070
0!
#2056985600
1!
#2057229140
0!
#2058527520
1!
#2058786320
0!
#2059052730
1!
#2059310040
0!
#2060591610
1!
#2060854840
0!
#2061110560
1!
#2061378090
0!
#2061628430
1!
#2061893310
0!
#2063182150
1!
#2063442150
0!
#2063701480
1!
#2063957860
0!
#2065254930
1!
#2065508590
0!
#2065767800
1!
#2066024070
0!
#2067321370
1!
#2067574140
0!
#2067832130
1!
#2068097050
0!
#2069385970
1!
#2069645470
0!
#2069898070
1!
#2070161830
0!
#2071449910
1!
#2071710900
0!
#2073003740
1!
#2073260200
0!
#2073516420
1!
#2073778070
0!
#2075064420
1!
#2075336340
0!
#2075593480
1!
#2075848710
0!
#2076106610
1!
#2076369540
0!
#2077657720
1!
#2077916950
0!
#2079205640
1!
#2079462290
0!
#2079718780
1!
#2079986160
0!
#2081276080
1!
#2081531850
0!
#2081787680
1!
#2082048750
0!
#2083345560
1!
#2083605630
0!
#2083856390
1!
#2084123920
0!
#2085411230
1!
#2085670420
0!
#2085929630
1!
#2086186590
0!
#2087478930
1!
#2087734740
0!
#2087990420
1!
#2088252070
0!
#2088505750
1!
#2088771400
0!
#2090059510
1!
#2090323280
0!
#2091611390
1!
#2091877730
0!
#2092126570
1!
#2092392060
0!
#2092644670
1!
#2092908430
0!
#2094197240
1!
#2094457620
0!
#2094716800
1!
#2094973450
0!
#2096260940
1!
#2096525790
0!
#2096783700
1!
#2097046350
0!
#2098334850
1!
#2098593650
0!
#2099880450
1!
#2100145530
0!
#2100400980
1!
#2100657510
0!
#2101946550
1!
#2102209850
0!
#2102465530
1!
#2102726650
0!
#2102979590
1!
#2103245360
0!
#2104535550
1!
#2104793700
0!
#2105049490
1!
#2105315760
0!
#2106598220
1!
#2106861680
0!
#2107117320
1!
#2107383580
0!
#2108675390
1!
#2108928040
0!
#2109181910
1!
#2109449100
0!
#2110744210
1!
#2111004090
0!
#2111252660
1!
#2111512660
0!
#2112805960
1!
#2113062230
0!
#2114354110
1!
#2114616600
0!
#2114872400
1!
#2115139240
0!
#2116421510
1!
#2116684810
0!
#2116940610
1!
#2117206870
0!
#2117456480
1!
#2117721430
0!
#2119009350
1!
#2119267580
0!
#2119523260
1!
#2119789490
0!
#2121071980
1!
#2121332710
0!
#2121591970
1!
#2121851540
0!
#2123147690
1!
#2123405460
0!
#2133656080
1!
#2133909110
0!
#2136507950
1!
#2136759300
0!
#2138055720
1!
#2138314440
0!
#2138568580
1!
#2138835310
0!
#2140118120
1!
#2140381380
0!
#2140637370
1!
#2140894020
0!
#2141154390
1!
#2141418810
0!
#2142707160
1!
#2142966690
0!
#2143225560
1!
#2143479870
0!
#2144769560
1!
#2145032480
0!
#2145290920
1!
#2145545350
0!
#2146843690
1!
#2147104070
0!
#2147359020
1!
#2147618440
0!
#2148911200
1!
#2149167120
0!
#2149426540
1!
#2149690190
0!
#2150979260
1!
#2151237990
0!
#2152526600
1!
#2152782750
0!
#2153049500
1!
#2153305620
0!
#2154592810
1!
#2154856880
0!
#2155114440
1!
#2155367790
0!
#2155632240
1!
#2155888700
0!
#2157177230
1!
#2157434730
0!
#2158733300
1!
#2158992640
0!
#2159251280
1!
#2159510440
0!
#2160802120
1!
#2161058040
0!
#2161314260
1!
#2161575370
0!
#2162871720
1!
#2163131910
0!
#2163390550
1!
#2163639280
0!
#2164929690
1!
#2165197110
0!
#2165459520
1!
#2165715250
0!
#2167004560
1!
#2167262980
0!
#2167519080
1!
#2167776190
0!
#2168036760
1!
#2168301180
0!
#2169590630
1!
#2169849590
0!
#2171135400
1!
#2171402240
0!
#2171657380
1!
#2171914960
0!
#2172171980
1!
#2172430060
0!
#2173727820
1!
#2173981890
0!
#2174238770
1!
#2174500070
0!
#2175796760
1!
#2176057220
0!
#2176307470
1!
#2176574860
0!
#2177863660
1!
#2178123540
0!
#2179415540
1!
#2179671800
0!
#2179927940
1!
#2180188710
0!
#2181485280
1!
#2181743820
0!
#2181998110
1!
#2182254340
0!
#2182510830
1!
#2182771560
0!
#2184068780
1!
#2184327630
0!
#2184581190
1!
#2184845840
0!
#2186135450
1!
#2186388370
0!
#2186655750
1!
#2186910670
0!
#2188200360
1!
#2188460160
0!
#2188723220
1!
#2188977260
0!
#2190266490
1!
#2190526450
0!
#2190785050
1!
#2191044580
0!
#2192336660
1!
#2192602650
0!
#2193882230
1!
#2194141760
0!
#2194410330
1!
#2194664520
0!
#2195960200
1!
#2196217430
0!
#2196479770
1!
#2196735110
0!
#2196990250
1!
#2197246900
0!
#2198545780
1!
#2198800280
0!
#2199056610
1!
#2199316690
0!
#2200610870
1!
#2200870330
0!
#2201126710
1!
#2201382590
0!
#2202674810
1!
#2202935160
0!
#2213184930
1!
#2213442810
0!
#2216043380
1!
#2216298260
0!
#2217586260
1!
#2217845800
0!
#2218104780
1!
#2218361280
0!
#2219659660
1!
#2219912930
0!
#2220171300
1!
#2220435950
0!
#2220692940
1!
#2220944970
0!
#2222242740
1!
#2222503040
0!
#2222762260
1!
#2223021870
0!
#2224304950
1!
#2224567100
0!
#2224830660
1!
#2225085740
0!
#2226375080
1!
#2226642460
0!
#2226897870
1!
#2227156100
0!
#2228451020
1!
#2228704010
0!
#2228968580
1!
#2229225540
0!
#2230510070
1!
#2230769650
0!
#2232062030
1!
#2232318600
0!
#2232589860
1!
#2232844320
0!
#2234132040
1!
#2234390500
0!
#2234656600
1!
#2234902990
0!
#2235163360
1!
#2235428320
0!
#2236716660
1!
#2236974350
0!
#2238263500
1!
#2238532460
0!
#2238789440
1!
#2239037860
0!
#2239048240
1!
#2239048290
0!
#2240339170
1!
#2240595660
0!
#2240851080
1!
#2241111690
0!
#2242405910
1!
#2242659410
0!
#2242925710
1!
#2243183320
0!
#2244466970
1!
#2244727350
0!
#2244990410
1!
#2245250450
0!
#2246540720
1!
#2246797330
0!
#2247053390
1!
#2247311270
0!
#2247567220
1!
#2247834180
0!
#2249122060
1!
#2249377600
0!
#2250675520
1!
#2250927670
0!
#2251191690
1!
#2251447540
0!
#2251706870
1!
#2251970290
0!
#2253258590
1!
#2253517210
0!
#2253770810
1!
#2254035880
0!
#2255324570
1!
#2255584920
0!
#2255838600
1!
#2256100170
0!
#2257391780
1!
#2257657320
0!
#2258944890
1!
#2259204540
0!
#2259464030
1!
#2259719990
0!
#2261008330
1!
#2261267940
0!
#2261526740
1!
#2261786000
0!
#2262045180
1!
#2262303950
0!
#2263594480
1!
#2263860060
0!
#2264117200
1!
#2264369430
0!
#2265667690
1!
#2265927920
0!
#2266186210
1!
#2266440020
0!
#2267736050
1!
#2267992280
0!
#2268248110
1!
#2268503610
0!
#2269802530
1!
#2270058070
0!
#2270316900
1!
#2270579980
0!
#2271869010
1!
#2272128540
0!
#2273417040
1!
#2273675190
0!
#2273932520
1!
#2274200250
0!
#2275489480
1!
#2275745550
0!
#2276001390
1!
#2276262350
0!
#2276525140
1!
#2276780180
0!
#2278068400
1!
#2278332170
0!
#2278587890
1!
#2278847500
0!
#2280143300
1!
#2280393260
0!
#2280650860
1!
#2280916560
0!
#2282205240
1!
#2282465090
0!
#2292711860
1!
#2292971320
0!
#2295562120
1!
#2295818660
0!
#2297110500
1!
#2297373420
0!
#2297629400
1!
#2297896130
0!
#2299177900
1!
#2299440630
0!
#2299705300
1!
#2299963070
0!
#2300214560
1!
#2300480020
0!
#2301768780
1!
#2302027010
0!
#2302283110
1!
#2302539460
0!
#2303832370
1!
#2304095300
0!
#2304349170
1!
#2304616240
0!
#2305900080
1!
#2306162160
0!
#2306421340
1!
#2306676990
0!
#2307976450
1!
#2308229210
0!
#2308487510
1!
#2308741930
0!
#2310042150
1!
#2310295500
0!
#2311585760
1!
#2311851610
0!
#2312107090
1!
#2312364710
0!
#2313653510
1!
#2313916580
0!
#2314172800
1!
#2314433340
0!
#2314696400
1!
#2314951480
0!
#2316238280
1!
#2316502200
0!
#2317791230
1!
#2318057270
0!
#2318312100
1!
#2318576180
0!
#2319856210
1!
#2320122860
0!
#2320378580
1!
#2320635230
0!
#2321926110
1!
#2322194110
0!
#2322449560
1!
#2322708290
0!
#2323992130
1!
#2324252470
0!
#2324511730
1!
#2324773610
0!
#2326064110
1!
#2326328600
0!
#2326583510
1!
#2326839970
0!
#2327096420
1!
#2327353230
0!
#2328652380
1!
#2328905990
0!
#2330195680
1!
#2330455330
0!
#2330714160
1!
#2330973810
0!
#2331232490
1!
#2331491610
0!
#2332780950
1!
#2333046370
0!
#2333304280
1!
#2333555850
0!
#2334854390
1!
#2335114310
0!
#2335364290
1!
#2335632140
0!
#2336919020
1!
#2337179480
0!
#2338471780
1!
#2338727580
0!
#2338994260
1!
#2339245110
0!
#2340542410
1!
#2340801180
0!
#2341054890
1!
#2341320090
0!
#2341577000
1!
#2341828720
0!
#2343125570
1!
#2343378490
0!
#2343643400
1!
#2343901470
0!
#2345196770
1!
#2345456270
0!
#2345712800
1!
#2345967720
0!
#2347258400
1!
#2347518020
0!
#2347780270
1!
#2348033890
0!
#2349331460
1!
#2349591730
0!
#2349849830
1!
#2350106940
0!
#2351395630
1!
#2351660050
0!
#2352950310
1!
#2353210700
0!
#2353469990
1!
#2353724260
0!
#2355018600
1!
#2355276710
0!
#2355539660
1!
#2355795580
0!
#2356050720
1!
#2356307220
0!
#2357606910
1!
#2357860250
0!
#2358115850
1!
#2358376280
0!
#2359673650
1!
#2359934150
0!
#2360184260
1!
#2360448250
0!
#2361734790
1!
#2361997480
0!
#2675069910
1!
#2675329950
0!
#2675606780
1!
#2675843050
0!
#2677155500
1!
#2677402160
0!
#2677663950
1!
#2677921720
0!
#2679212900
1!
#2679478290
0!
#2679733660
1!
#2679990500
0!
#2681290310
1!
#2681546920
0!
#2681802180
1!
#2682061060
0!
#2683357250
1!
#2683610440
0!
#2683865810
1!
#2684133230
0!
#2685428150
1!
#2685687990
0!
#2685938860
1!
#2686197050
0!
#2687494700
1!
#2687751620
0!
#2688010840
1!
#2688267800
0!
#2689556830
1!
#2689822750
0!
#2690080510
1!
#2690342890
0!
#2691631080
1!
#2691890270
0!
#2692146830
1!
#2692403180
0!
#2693694560
1!
#2693954980
0!
#2694214920
1!
#2694474770
0!
#2695765730
1!
#2696021920
0!
#2696281980
1!
#2696546090
0!
#2697834780
1!
#2698093550
0!
#2698349340
1!
#2698615570
0!
#2699899600
1!
#2700162490
0!
#2700418590
1!
#2700674390
0!
#2701967310
1!
#2702230310
0!
#2702486410
1!
#2702742260
0!
#2714282180
1!
#2714539910
0!
#2714550130
1!
#2714550180
0!
#2717140440
1!
#2717396830
0!
#2718686970
1!
#2718951280
0!
#2719207650
1!
#2719463730
0!
#2720755760
1!
#2721014830
0!
#2721277130
1!
#2721531240
0!
#2721797340
1!
#2722054110
0!
#2723338140
1!
#2723600680
0!
#2723854510
1!
#2724121240
0!
#2725405780
1!
#2725665770
0!
#2725928420
1!
#2726188260
0!
#2727478720
1!
#2727742560
0!
#2727997700
1!
#2728253810
0!
#2729544390
1!
#2729812340
0!
#2730067640
1!
#2730325250
0!
#2731609980
1!
#2731870170
0!
#2733161590
1!
#2733428280
0!
#2733679460
1!
#2733945300
0!
#2735233870
1!
#2735494490
0!
#2735753860
1!
#2736010200
0!
#2736266190
1!
#2736526490
0!
#2737823680
1!
#2738083760
0!
#2739366100
1!
#2739626830
0!
#2739890970
1!
#2740147620
0!
#2741437690
1!
#2741698300
0!
#2741957440
1!
#2742213250
0!
#2743501130
1!
#2743764550
0!
#2744023080
1!
#2744288230
0!
#2745577880
1!
#2745832530
0!
#2746092510
1!
#2746352510
0!
#2747645050
1!
#2747900470
0!
#2748159990
1!
#2748424990
0!
#2748680010
1!
#2748937170
0!
#2750227200
1!
#2750487160
0!
#2751778580
1!
#2752043310
0!
#2752298450
1!
#2752555140
0!
#2752812350
1!
#2753069580
0!
#2754368460
1!
#2754623840
0!
#2754879180
1!
#2755139210
0!
#2756434020
1!
#2756698280
0!
#2756953540
1!
#2757211580
0!
#2758507230
1!
#2758767530
0!
#2760049300
1!
#2760316450
0!
#2760567740
1!
#2760833470
0!
#2762120810
1!
#2762385270
0!
#2762640570
1!
#2762899990
0!
#2763151170
1!
#2763416550
0!
#2764705890
1!
#2764966730
0!
#2765226300
1!
#2765483180
0!
#2766771060
1!
#2767032020
0!
#2767290540
1!
#2767549390
0!
#2768837540
1!
#2769103500
0!
#2769361250
1!
#2769624170
0!
#2770912360
1!
#2771171240
0!
#2771427040
1!
#2771692690
0!
#2772975530
1!
#2773238140
0!
#2774529100
1!
#2774793060
0!
#2775048090
1!
#2775305160
0!
#2776592350
1!
#2776856380
0!
#2777111790
1!
#2777372410
0!
#2777625510
1!
#2777891200
0!
#2779177770
1!
#2779441310
0!
#2779696450
1!
#2779957060
0!
#2781253940
1!
#2781514050
0!
#2781762620
1!
#2782024350
0!
#2783315920
1!
#2783580490
0!
#2793822110
1!
#2794084180
0!
#2796681640
1!
#2796933750
0!
#2798230400
1!
#2798494780
0!
#2798750390
1!
#2799009040
0!
#2800294420
1!
#2800553990
0!
#2800813250
1!
#2801076590
0!
#2801332660
1!
#2801588190
0!
#2802879190
1!
#2803138840
0!
#2803398020
1!
#2803659560
0!
#2804956090
1!
#2805212130
0!
#2805468230
1!
#2805725260
0!
#2807016610
1!
#2807284220
0!
#2807539630
1!
#2807798090
0!
#2809094240
1!
#2809342770
0!
#2809605340
1!
#2809864570
0!
#2811153410
1!
#2811412410
0!
#2812702900
1!
#2812970630
0!
#2813225880
1!
#2813485110
0!
#2814770880
1!
#2815042760
0!
#2815299550
1!
#2815554980
0!
#2815813040
1!
#2816076270
0!
#2817364220
1!
#2817622650
0!
#2818911330
1!
#2819179790
0!
#2819426590
1!
#2819695930
0!
#2820976270
1!
#2821243730
0!
#2821498950
1!
#2821758830
0!
#2823045170
1!
#2823315750
0!
#2823564350
1!
#2823825890
0!
#2825117150
1!
#2825382530
0!
#2825638290
1!
#2825896020
0!
#2827183590
1!
#2827447200
0!
#2827703340
1!
#2827964300
0!
#2828227640
1!
#2828482980
0!
#2829772280
1!
#2830030160
0!
#2831319080
1!
#2831586460
0!
#2831842880
1!
#2832099340
0!
#2832355280
1!
#2832621780
0!
#2833907930
1!
#2834174850
0!
#2834425490
1!
#2834690600
0!
#2835979950
1!
#2836238400
0!
#2836494200
1!
#2836760430
0!
#2838043270
1!
#2838306920
0!
#2839595610
1!
#2839864140
0!
#2840111750
1!
#2840380900
0!
#2841662470
1!
#2841929890
0!
#2842185300
1!
#2842444720
0!
#2842697130
1!
#2842962860
0!
#2844250050
1!
#2844517240
0!
#2844772570
1!
#2845030650
0!
#2846323990
1!
#2846582290
0!
#2846836050
1!
#2847092430
0!
#2848386850
1!
#2848649390
0!
#2848909140
1!
#2849165720
0!
#2850452710
1!
#2850718360
0!
#2850968120
1!
#2851238460
0!
#2852526770
1!
#2852782150
0!
#2854074870
1!
#2854338100
0!
#2854597170
1!
#2854851320
0!
#2856148970
1!
#2856412660
0!
#2856659070
1!
#2856923990
0!
#2857182090
1!
#2857444940
0!
#2858733740
1!
#2858993000
0!
#2859248910
1!
#2859504680
0!
#2860796020
1!
#2861058400
0!
#2861312240
1!
#2861579270
0!
#2862875120
1!
#2863134960
0!
#2873378850
1!
#2873637800
0!
#2876239760
1!
#2876485220
0!
#2877786290
1!
#2878046100
0!
#2878305930
1!
#2878560390
0!
#2879852810
1!
#2880108920
0!
#2880368750
1!
#2880633750
0!
#2880888850
1!
#2881145510
0!
#2882434310
1!
#2882701380
0!
#2882956600
1!
#2883215180
0!
#2884510980
1!
#2884771440
0!
#2885030620
1!
#2885280810
0!
#2886581460
1!
#2886837990
0!
#2887093670
1!
#2887350940
0!
#2888640430
1!
#2888907890
0!
#2889163110
1!
#2889422070
0!
#2890718030
1!
#2890977870
0!
#2892266210
1!
#2892523060
0!
#2892780080
1!
#2893048160
0!
#2894329110
1!
#2894596800
0!
#2894852250
1!
#2895110790
0!
#2895363040
1!
#2895628500
0!
#2896917190
1!
#2897174380
0!
#2898471180
1!
#2898731100
0!
#2898989780
1!
#2899246550
0!
#2900538430
1!
#2900794240
0!
#2901060920
1!
#2901312070
0!
#2902608520
1!
#2902872170
0!
#2903127350
1!
#2903385580
0!
#2904669460
1!
#2904932270
0!
#2905198830
1!
#2905456060
0!
#2906739090
1!
#2907001820
0!
#2907267620
1!
#2907524380
0!
#2907775220
1!
#2908040750
0!
#2909330060
1!
#2909589250
0!
#2910884130
1!
#2911141240
0!
#2911398420
1!
#2911656300
0!
#2911913630
1!
#2912170590
0!
#2913468240
1!
#2913733160
0!
#2913979230
1!
#2914241220
0!
#2915536530
1!
#2915799530
0!
#2916054400
1!
#2916314010
0!
#2917610700
1!
#2917870200
0!
#2919151110
1!
#2919418150
0!
#2919680370
1!
#2919935790
0!
#2921225480
1!
#2921484670
0!
#2921740340
1!
#2922007270
0!
#2922257440
1!
#2922522710
0!
#2923811670
1!
#2924071400
0!
#2924330610
1!
#2924586420
0!
#2925885180
1!
#2926137950
0!
#2926396250
1!
#2926661170
0!
#2927951620
1!
#2928204310
0!
#2928461340
1!
#2928726450
0!
#2930016830
1!
#2930277060
0!
#2930536160
1!
#2930795580
0!
#2932087930
1!
#2932343690
0!
#2933633880
1!
#2933896530
0!
#2934150400
1!
#2934417980
0!
#2935701130
1!
#2935961430
0!
#2936220300
1!
#2936479880
0!
#2936739130
1!
#2936998790
0!
#2938290010
1!
#2938556470
0!
#2938806770
1!
#2939071110
0!
#2940358450
1!
#2940621910
0!
#2940876780
1!
#2941136320
0!
#2942432660
1!
#2942692160
0!
#2952945430
1!
#2953207920
0!
#2955799110
1!
#2956054920
0!
#2957346410
1!
#2957612260
0!
#2957869470
1!
#2958132430
0!
#2959420240
1!
#2959680310
0!
#2959939640
1!
#2960195330
0!
#2960450630
1!
#2960710700
0!
#2962008280
1!
#2962267540
0!
#2962523450
1!
#2962779720
0!
#2964072640
1!
#2964332440
0!
#2964591700
1!
#2964851310
0!
#2966143880
1!
#2966399960
0!
#2966660210
1!
#2966925290
0!
#2968214050
1!
#2968473970
0!
#2968732350
1!
#2968987000
0!
#2970287800
1!
#2970547680
0!
#2971838720
1!
#2972094180
0!
#2972352890
1!
#2972617280
0!
#2973905000
1!
#2974165040
0!
#2974424410
1!
#2974679910
0!
#2974935740
1!
#2975196120
0!
#2976494270
1!
#2976754190
0!
#2978045420
1!
#2978302990
0!
#2978565830
1!
#2978821130
0!
#2980110130
1!
#2980378120
0!
#2980633270
1!
#2980891300
0!
#2982177100
1!
#2982438030
0!
#2982701590
1!
